{
  "status": "OK",
  "data": {
    "id": 1,
    "publisher": "Jülich DATA",
    "publicationDate": "2020-06-03",
    "latestVersion": {
      "datasetId": 1,
      "lastUpdateTime": "2022-03-16T15:09:40Z",
      "releaseTime": "2022-03-16T15:09:40Z",
      "createTime": "2022-03-16T15:09:33Z",
      "license": "CCBY",
      "files": [
        {
          "restricted": false,
          "dataFile": {
            "id": 7,
            "contentType": "text/comma-separated-values",
            "filesize": 666,
            "checksum": {
              "type": "SHA-256",
              "value": "0beb82718b0597febd091081a83ca571a8b42e40f83c9de0f029f55688d40a94"
            },
            "creationDate": "2020-04-30"
          }
        },
        {
          "restricted": false,
          "dataFile": {
            "id": 8,
            "contentType": "text/comma-separated-values",
            "filesize": 1372,
            "checksum": {
              "type": "SHA-256",
              "value": "dd4fa11deef6d8bdc78b4b4855dbbf686f30dfc2abae183225877648536fd65e"
            },
            "creationDate": "2020-04-30"
          }
        }
      ]
    }
  }
}
