{
    "help": "https://journaldata.zbw.eu/api/3/action/help_show?name=package_search",
    "success": true,
    "result": {
        "count": 1774,
        "facets": {},
        "results": [
            {
                "author": null,
                "author_email": null,
                "creator_user_id": "d8126d8f-c80e-43e7-b919-5d20c5670d81",
                "dara_DOI": "10.15456/jae.2024158.1518311843",
                "dara_DOI_Test": "",
                "dara_PublicationDate": "2024",
                "dara_Publication_EndPage": "",
                "dara_Publication_Issue": "",
                "dara_Publication_PID": "",
                "dara_Publication_PIDType": "",
                "dara_Publication_StartPage": "",
                "dara_Publication_Volume": "",
                "dara_authors": "[{\"lastname\": \"Baiardi\", \"firstname\": \"Anna\", \"affil\": \"Erasmus University Rotterdam\", \"affilID\": \"\", \"url\": \"\", \"authorID\": \"\", \"authorID_Type\": \"\"}, {\"lastname\": \"Naghi\", \"firstname\": \"Andrea A.\", \"affil\": \"Queen Mary University of London\", \"affilID\": \"\", \"url\": \"\", \"authorID\": \"\", \"authorID_Type\": \"\"}]",
                "dara_currentVersion": "1",
                "dara_edawax_review": "reviewed",
                "dara_jda_submission_id": "",
                "dara_registered": "2024-06-07 08:45:10",
                "dara_related_citation": "",
                "id": "d9b1449d-2f5c-4153-a561-31060732afcf",
                "isopen": false,
                "license_id": null,
                "license_title": null,
                "maintainer": "",
                "maintainer_email": null,
                "metadata_created": "2024-06-06T15:18:15.311843",
                "metadata_modified": "2024-06-07T08:53:15.283343",
                "name": "the-effect-of-plough-agriculture-on-gender-roles-a-machine-learning-approach-replication-data",
                "notes": "Data and replication code for \"The effect of plough agriculture on gender roles: A machine learning approach\" by Anna Baiardi and Andrea A. Naghi, published in Journal of Applied Econometrics, 2024",
                "num_resources": 2,
                "num_tags": 0,
                "organization": {
                    "id": "808b8167-af26-45f3-b344-52b247938699",
                    "name": "jae",
                    "title": "Journal of Applied Econometrics",
                    "type": "organization",
                    "description": "The [Journal of Applied Econometrics](https://onlinelibrary.wiley.com/journal/10991255 \"Journal of Applied Econometrics\") aims to publish articles of high quality dealing with the application of existing as well as new econometric techniques to a wide variety of problems in economics and related subjects, covering topics in measurement, estimation, testing, forecasting, and policy analysis. The emphasis is on the careful and rigorous application of econometric techniques and the appropriate interpretation of the results. The economic content of the articles is stressed. A special feature of the Journal is its emphasis on the replicability of results by other researchers. To achieve this aim, authors are expected to make available a complete set of the data used as well as any specialized computer programs employed through a readily accessible medium, preferably in a machine-readable form. The Journal also features occasional sections of short papers re-evaluating previously published papers.",
                    "image_url": "2022-07-15-083043.054326JAE282190.jpg",
                    "created": "2022-07-15T08:30:43.068001",
                    "is_organization": true,
                    "approval_status": "approved",
                    "state": "active"
                },
                "owner_org": "808b8167-af26-45f3-b344-52b247938699",
                "private": false,
                "state": "active",
                "title": "The Effect of plough agriculture on gender roles: A machine learning approach (Replication Data)",
                "type": "dataset",
                "url": null,
                "version": null,
                "resources": [
                    {
                        "cache_last_updated": null,
                        "cache_url": null,
                        "created": "2024-06-06T15:26:49.779100",
                        "dara_Availabilitycontrolled": "Download",
                        "dara_DOI": "",
                        "dara_DOI_Test": "",
                        "dara_PublicationDate": "2024",
                        "dara_authors": [
                            "Baiardi",
                            "Anna",
                            "Erasmus University Rotterdam",
                            "",
                            "",
                            "Naghi",
                            "Andrea A.",
                            "Queen Mary University of London",
                            "",
                            ""
                        ],
                        "dara_currentVersion": "1",
                        "dara_geographicCoverageFree": "",
                        "dara_numberUnits": "",
                        "dara_numberVariables": "",
                        "dara_res_preselection": "data",
                        "dara_temporalCoverageFormal": "",
                        "dara_temporalCoverageFormal_end": "",
                        "dara_temporalCoverageFree": "",
                        "dara_unitType": "",
                        "dara_universeSampled": "",
                        "datastore_active": false,
                        "datastore_contains_all_records_of_source_file": false,
                        "description": "",
                        "format": ".pdf",
                        "hash": "",
                        "id": "b7f8d11f-9176-410e-aad0-712eb2a10f25",
                        "last_modified": "2024-06-06T15:26:49.673052",
                        "metadata_modified": "2024-06-06T15:29:08.594417",
                        "mimetype": "application/pdf",
                        "mimetype_inner": null,
                        "name": "Readme_BN.pdf",
                        "package_id": "d9b1449d-2f5c-4153-a561-31060732afcf",
                        "position": 0,
                        "resource_type": null,
                        "size": 137801,
                        "state": "active",
                        "url": "https://journaldata.zbw.eu/dataset/d9b1449d-2f5c-4153-a561-31060732afcf/resource/b7f8d11f-9176-410e-aad0-712eb2a10f25/download/readme_bn.pdf",
                        "url_type": "upload"
                    },
                    {
                        "cache_last_updated": null,
                        "cache_url": null,
                        "created": "2024-06-06T15:23:13.763158",
                        "dara_Availabilitycontrolled": "Download",
                        "dara_DOI": "",
                        "dara_DOI_Test": "",
                        "dara_PublicationDate": "2024",
                        "dara_authors": [
                            "Baiardi",
                            "Anna",
                            "",
                            "Queen Mary University of London",
                            "Naghi",
                            "",
                            "",
                            "",
                            "",
                            ""
                        ],
                        "dara_currentVersion": "1",
                        "dara_geographicCoverageFree": "",
                        "dara_numberUnits": "",
                        "dara_numberVariables": "",
                        "dara_res_preselection": "data",
                        "dara_temporalCoverageFormal": "",
                        "dara_temporalCoverageFormal_end": "",
                        "dara_temporalCoverageFree": "",
                        "dara_unitType": "",
                        "dara_universeSampled": "",
                        "datastore_active": false,
                        "datastore_contains_all_records_of_source_file": false,
                        "description": "Data and replication code for \"The Effect of Plough Agriculture on Gender Roles: A Machine Learning Approach\" by Anna Baiardi and Andrea A. Naghi published in Journal of Applied Econometrics, 2024",
                        "format": "ZIP",
                        "hash": "",
                        "id": "7fdf4759-91d5-46e9-8ccd-e0301fcc4226",
                        "last_modified": "2024-06-06T15:23:13.724064",
                        "metadata_modified": "2024-06-07T08:42:11.030799",
                        "mimetype": "application/zip",
                        "mimetype_inner": null,
                        "name": "The effect of plough agriculture on gender roles A machine learning approach (replication data).zip",
                        "package_id": "d9b1449d-2f5c-4153-a561-31060732afcf",
                        "position": 1,
                        "resource_type": null,
                        "size": 152893,
                        "state": "active",
                        "url": "https://journaldata.zbw.eu/dataset/d9b1449d-2f5c-4153-a561-31060732afcf/resource/7fdf4759-91d5-46e9-8ccd-e0301fcc4226/download/the-effect-of-plough-agriculture-on-gender-roles-a-machine-learning-approach-replication-data.zip",
                        "url_type": "upload"
                    }
                ],
                "tags": [],
                "groups": [],
                "relationships_as_subject": [],
                "relationships_as_object": []
            }
        ],
        "sort": "metadata_created desc",
        "search_facets": {}
    }
}
